# Fdb version 3
["pdflatex"] 1564694875 "/Users/angu/Documents/4A/ece493/ece493T25-asg2/report/report.tex" "/Users/angu/Documents/4A/ece493/ece493T25-asg2/report/report.pdf" "report" 1564694875
  "/Users/angu/Documents/4A/ece493/ece493T25-asg2/report/report.aux" 1564694875 1544 d9e76b631cb8eb691cf946326c09f3d6 ""
  "/Users/angu/Documents/4A/ece493/ece493T25-asg2/report/report.tex" 1564694191 7632 9a430db396b65c11b1c19516a68d7acb ""
  "/usr/local/texlive/2018/texmf-dist/fonts/map/fontname/texfonts.map" 1511824771 3332 103109f5612ad95229751940c61aada0 ""
  "/usr/local/texlive/2018/texmf-dist/fonts/tfm/public/cm/cmbx10.tfm" 1480098701 1328 c834bbb027764024c09d3d2bf908b5f0 ""
  "/usr/local/texlive/2018/texmf-dist/fonts/tfm/public/cm/cmbx12.tfm" 1480098701 1324 c910af8c371558dc20f2d7822f66fe64 ""
  "/usr/local/texlive/2018/texmf-dist/fonts/tfm/public/cm/cmmi12.tfm" 1480098701 1524 4414a8315f39513458b80dfc63bff03a ""
  "/usr/local/texlive/2018/texmf-dist/fonts/tfm/public/cm/cmmi6.tfm" 1480098701 1512 f21f83efb36853c0b70002322c1ab3ad ""
  "/usr/local/texlive/2018/texmf-dist/fonts/tfm/public/cm/cmmi8.tfm" 1480098701 1520 eccf95517727cb11801f4f1aee3a21b4 ""
  "/usr/local/texlive/2018/texmf-dist/fonts/tfm/public/cm/cmr12.tfm" 1480098701 1288 655e228510b4c2a1abe905c368440826 ""
  "/usr/local/texlive/2018/texmf-dist/fonts/tfm/public/cm/cmr17.tfm" 1480098701 1292 296a67155bdbfc32aa9c636f21e91433 ""
  "/usr/local/texlive/2018/texmf-dist/fonts/tfm/public/cm/cmr6.tfm" 1480098701 1300 b62933e007d01cfd073f79b963c01526 ""
  "/usr/local/texlive/2018/texmf-dist/fonts/tfm/public/cm/cmr8.tfm" 1480098701 1292 21c1c5bfeaebccffdb478fd231a0997d ""
  "/usr/local/texlive/2018/texmf-dist/fonts/tfm/public/cm/cmsy10.tfm" 1480098701 1124 6c73e740cf17375f03eec0ee63599741 ""
  "/usr/local/texlive/2018/texmf-dist/fonts/tfm/public/cm/cmsy6.tfm" 1480098701 1116 933a60c408fc0a863a92debe84b2d294 ""
  "/usr/local/texlive/2018/texmf-dist/fonts/tfm/public/cm/cmsy8.tfm" 1480098701 1120 8b7d695260f3cff42e636090a8002094 ""
  "/usr/local/texlive/2018/texmf-dist/fonts/tfm/public/cm/cmti10.tfm" 1480098701 1480 aa8e34af0eb6a2941b776984cf1dfdc4 ""
  "/usr/local/texlive/2018/texmf-dist/fonts/type1/public/amsfonts/cm/cmbx10.pfb" 1480098733 34811 78b52f49e893bcba91bd7581cdc144c0 ""
  "/usr/local/texlive/2018/texmf-dist/fonts/type1/public/amsfonts/cm/cmbx12.pfb" 1480098733 32080 340ef9bf63678554ee606688e7b5339d ""
  "/usr/local/texlive/2018/texmf-dist/fonts/type1/public/amsfonts/cm/cmex10.pfb" 1480098733 30251 6afa5cb1d0204815a708a080681d4674 ""
  "/usr/local/texlive/2018/texmf-dist/fonts/type1/public/amsfonts/cm/cmmi10.pfb" 1480098733 36299 5f9df58c2139e7edcf37c8fca4bd384d ""
  "/usr/local/texlive/2018/texmf-dist/fonts/type1/public/amsfonts/cm/cmmi7.pfb" 1480098733 36281 c355509802a035cadc5f15869451dcee ""
  "/usr/local/texlive/2018/texmf-dist/fonts/type1/public/amsfonts/cm/cmr10.pfb" 1480098733 35752 024fb6c41858982481f6968b5fc26508 ""
  "/usr/local/texlive/2018/texmf-dist/fonts/type1/public/amsfonts/cm/cmr12.pfb" 1480098733 32722 d7379af29a190c3f453aba36302ff5a9 ""
  "/usr/local/texlive/2018/texmf-dist/fonts/type1/public/amsfonts/cm/cmr17.pfb" 1480098733 32362 179c33bbf43f19adbb3825bb4e36e57a ""
  "/usr/local/texlive/2018/texmf-dist/fonts/type1/public/amsfonts/cm/cmr7.pfb" 1480098733 32762 224316ccc9ad3ca0423a14971cfa7fc1 ""
  "/usr/local/texlive/2018/texmf-dist/fonts/type1/public/amsfonts/cm/cmsy10.pfb" 1480098733 32569 5e5ddc8df908dea60932f3c484a54c0d ""
  "/usr/local/texlive/2018/texmf-dist/fonts/type1/public/amsfonts/cm/cmti10.pfb" 1480098733 37944 359e864bd06cde3b1cf57bb20757fb06 ""
  "/usr/local/texlive/2018/texmf-dist/tex/context/base/mkii/supp-pdf.mkii" 1480098806 71627 94eb9990bed73c364d7f53f960cc8c5b ""
  "/usr/local/texlive/2018/texmf-dist/tex/generic/ifxetex/ifxetex.sty" 1480098815 1458 43ab4710dc82f3edeabecd0d099626b2 ""
  "/usr/local/texlive/2018/texmf-dist/tex/generic/oberdiek/gettitlestring.sty" 1480098815 8237 3b62ef1f7e2c23a328c814b3893bc11f ""
  "/usr/local/texlive/2018/texmf-dist/tex/generic/oberdiek/hobsub-generic.sty" 1522444781 185313 3e16abd014cb2c328020e45d63ed7f45 ""
  "/usr/local/texlive/2018/texmf-dist/tex/generic/oberdiek/hobsub-hyperref.sty" 1480098815 70864 bcd5b216757bd619ae692a151d90085d ""
  "/usr/local/texlive/2018/texmf-dist/tex/generic/oberdiek/ifpdf.sty" 1490564930 1251 d170e11a3246c3392bc7f59595af42cb ""
  "/usr/local/texlive/2018/texmf-dist/tex/generic/oberdiek/ifvtex.sty" 1480098815 6797 90b7f83b0ad46826bc16058b1e3d48df ""
  "/usr/local/texlive/2018/texmf-dist/tex/latex/base/article.cls" 1523050425 19823 fcbc01552b07b608574cbf8e1977e0c0 ""
  "/usr/local/texlive/2018/texmf-dist/tex/latex/base/inputenc.sty" 1523050425 5052 f2525dfd6e503dc383e90b568c6c9f02 ""
  "/usr/local/texlive/2018/texmf-dist/tex/latex/base/omscmr.fd" 1523050425 2472 aa08940f0a4dc6c24ae9f943b04ae0b9 ""
  "/usr/local/texlive/2018/texmf-dist/tex/latex/base/size10.clo" 1523050425 8294 b0f177401f895563eb19304d2389582d ""
  "/usr/local/texlive/2018/texmf-dist/tex/latex/caption/caption.sty" 1480098823 66233 8b81cfab95a1f8fc2f0f6c89415b087a ""
  "/usr/local/texlive/2018/texmf-dist/tex/latex/caption/caption3.sty" 1480098823 64866 1ea74c5f2d1685881497f021b8f186b2 ""
  "/usr/local/texlive/2018/texmf-dist/tex/latex/float/float.sty" 1480098828 6749 16d2656a1984957e674b149555f1ea1d ""
  "/usr/local/texlive/2018/texmf-dist/tex/latex/geometry/geometry.sty" 1522012985 41366 3ed245b911039f45436c2cb62a4d1e62 ""
  "/usr/local/texlive/2018/texmf-dist/tex/latex/graphics-cfg/graphics.cfg" 1480098830 1224 978390e9c2234eab29404bc21b268d1e ""
  "/usr/local/texlive/2018/texmf-dist/tex/latex/graphics-def/pdftex.def" 1515537368 17334 520b9b85ad8a2a48eda3f643e27a5179 ""
  "/usr/local/texlive/2018/texmf-dist/tex/latex/graphics/graphics.sty" 1523134385 15272 5a97061616e0c8b2aa79c6615ff769f4 ""
  "/usr/local/texlive/2018/texmf-dist/tex/latex/graphics/graphicx.sty" 1523134385 9063 d0a305975932762117cd1f06a582f896 ""
  "/usr/local/texlive/2018/texmf-dist/tex/latex/graphics/keyval.sty" 1523134385 2591 6404d0c7d28505fb38ce0d86c2e28ae7 ""
  "/usr/local/texlive/2018/texmf-dist/tex/latex/graphics/trig.sty" 1523134385 3977 cb9221976ed8a183afad65b59aa8629a ""
  "/usr/local/texlive/2018/texmf-dist/tex/latex/hyperref/hpdftex.def" 1518041854 51699 9069fc983fff0db91d59a15af144ad62 ""
  "/usr/local/texlive/2018/texmf-dist/tex/latex/hyperref/hyperref.sty" 1518041854 234088 2c849389d62d41c593d9f5176c4116ab ""
  "/usr/local/texlive/2018/texmf-dist/tex/latex/hyperref/nameref.sty" 1480098831 12949 81e4e808884a8f0e276b69410e234656 ""
  "/usr/local/texlive/2018/texmf-dist/tex/latex/hyperref/pd1enc.def" 1518041854 14098 4e70bf396c7c265bd8b0e5cab3fd3d4d ""
  "/usr/local/texlive/2018/texmf-dist/tex/latex/latexconfig/epstopdf-sys.cfg" 1480098833 678 4792914a8f45be57bb98413425e4c7af ""
  "/usr/local/texlive/2018/texmf-dist/tex/latex/latexconfig/hyperref.cfg" 1480098833 235 6031e5765137be07eed51a510b2b8fb7 ""
  "/usr/local/texlive/2018/texmf-dist/tex/latex/listings/listings.cfg" 1480098833 1827 d72ad54409ca5c1068a1939c63441bd2 ""
  "/usr/local/texlive/2018/texmf-dist/tex/latex/listings/listings.sty" 1480098833 80336 ff90c926c3d7bfdaa3d80ca57123b0bb ""
  "/usr/local/texlive/2018/texmf-dist/tex/latex/listings/lstlang1.sty" 1480098833 93445 48e5be20ba2d0a2ca5c4ce7e292a4bbc ""
  "/usr/local/texlive/2018/texmf-dist/tex/latex/listings/lstmisc.sty" 1480098833 77028 c3eb00afb55a32bc13ca8da7f5234377 ""
  "/usr/local/texlive/2018/texmf-dist/tex/latex/oberdiek/auxhook.sty" 1480098836 3834 4363110eb0ef1eb2b71c8fcbcdb6c357 ""
  "/usr/local/texlive/2018/texmf-dist/tex/latex/oberdiek/epstopdf-base.sty" 1480098836 12095 5337833c991d80788a43d3ce26bd1c46 ""
  "/usr/local/texlive/2018/texmf-dist/tex/latex/oberdiek/grfext.sty" 1480098836 7075 2fe3d848bba95f139de11ded085e74aa ""
  "/usr/local/texlive/2018/texmf-dist/tex/latex/oberdiek/kvoptions.sty" 1480098836 22417 1d9df1eb66848aa31b18a593099cf45c ""
  "/usr/local/texlive/2018/texmf-dist/tex/latex/oberdiek/rerunfilecheck.sty" 1480098836 9581 023642318cef9f4677efe364de1e2a27 ""
  "/usr/local/texlive/2018/texmf-dist/tex/latex/parskip/parskip.sty" 1480098836 2763 02a40cc5a32805c41d919cfbdba7e99a ""
  "/usr/local/texlive/2018/texmf-dist/tex/latex/url/url.sty" 1480098842 12796 8edb7d69a20b857904dd0ea757c14ec9 ""
  "/usr/local/texlive/2018/texmf-dist/web2c/texmf.cnf" 1522066949 33362 cf75436e19743e94a92a6b1b9183c434 ""
  "/usr/local/texlive/2018/texmf-var/fonts/map/pdftex/updmap/pdftex.map" 1523934492 2717033 f61a5287d9c22a39a74f1979fe3f905c ""
  "/usr/local/texlive/2018/texmf-var/web2c/pdftex/pdflatex.fmt" 1523934516 4220280 10cab8fbd7c5a7c52aba9917e190d018 ""
  "/usr/local/texlive/2018/texmf.cnf" 1523934483 577 0b39adfd7c93507ff20c9c14c2f1a33f ""
  "report.aux" 1564694875 1544 d9e76b631cb8eb691cf946326c09f3d6 ""
  "report.out" 1564694875 523 d25ef099d43df06690e2ffb3ce536ab2 ""
  "report.tex" 1564694191 7632 9a430db396b65c11b1c19516a68d7acb ""
  (generated)
  "/Users/angu/Documents/4A/ece493/ece493T25-asg2/report/report.pdf"
  "report.log"
  "report.out"
  "/Users/angu/Documents/4A/ece493/ece493T25-asg2/report/report.log"
  "report.aux"
  "report.pdf"
