\relax 
\providecommand\hyper@newdestlabel[2]{}
\providecommand\HyperFirstAtBeginDocument{\AtBeginDocument}
\HyperFirstAtBeginDocument{\ifx\hyper@anchor\@undefined
\global\let\oldcontentsline\contentsline
\gdef\contentsline#1#2#3#4{\oldcontentsline{#1}{#2}{#3}}
\global\let\oldnewlabel\newlabel
\gdef\newlabel#1#2{\newlabelxx{#1}#2}
\gdef\newlabelxx#1#2#3#4#5#6{\oldnewlabel{#1}{{#2}{#3}}}
\AtEndDocument{\ifx\hyper@anchor\@undefined
\let\contentsline\oldcontentsline
\let\newlabel\oldnewlabel
\fi}
\fi}
\global\let\hyper@last\relax 
\gdef\HyperFirstAtBeginDocument#1{#1}
\providecommand\HyField@AuxAddToFields[1]{}
\providecommand\HyField@AuxAddToCoFields[2]{}
\@writefile{toc}{\contentsline {section}{\numberline {1}SARSA}{1}{section.1}}
\@writefile{toc}{\contentsline {section}{\numberline {2}Q Learning}{1}{section.2}}
\@writefile{toc}{\contentsline {section}{\numberline {3}Expected SARSA}{1}{section.3}}
\@writefile{toc}{\contentsline {section}{\numberline {4}Double Q learning}{2}{section.4}}
\@writefile{toc}{\contentsline {section}{\numberline {5}Results}{2}{section.5}}
\@writefile{toc}{\contentsline {subsection}{\numberline {5.1}Task 1}{2}{subsection.5.1}}
\@writefile{toc}{\contentsline {subsection}{\numberline {5.2}Task 2}{2}{subsection.5.2}}
\@writefile{toc}{\contentsline {subsection}{\numberline {5.3}Task 3}{3}{subsection.5.3}}
\@writefile{toc}{\contentsline {subsection}{\numberline {5.4}Expected SARSA}{3}{subsection.5.4}}
\@writefile{toc}{\contentsline {subsection}{\numberline {5.5}Double Q learning}{3}{subsection.5.5}}
